{
    "name": "blue_flower_one",
    "format": "simple",
    "type": "lel",
    "sens_base_h": "left",
    "sens_base_v": 0,
    "img_width": 768,
    "img_height": 768,
    "nb_img_h": 8,
    "nb_img_v": 8,
    "width_spritesheet": 6160,
    "height_spritesheet": 6160,
    "horizontal_flip": ["stop"],
    "vertical_flip": [],
    "color_key": -1,
    "scale": 0.4,
    "animations": [
        {
            "name": "stop",
             "nb_frames": 60
        }
    ]
}