{
    "name": "hero",
    "format": "precis",
    "sens_base_h": "left",
    "sens_base_v": 0,
    "type": "spriteset",
    "img_width": 184,
    "img_height": 216,
    "nb_img_h": 0,
    "nb_img_v": 0,
    "width_spritesheet":2393,
    "height_spritesheet":13086,
    "horizontal_flip_old": ["stop", "run", "tilt", "death", "hurt", "jump", "fall", "dash", "wall_jump"],
    "horizontal_flip": ["stop", "run"],
    "vertical_flip": [],
    "color_key": -1,
    "scale": 0.6,
    "info": "Toutes les informations sont les paramètres ci dessous, pas besoin de skip",
    "animations": [
        {
            "name": "stop",
            "start_x": 3,
            "start_y": 953,
            "width": 184,
            "height": 216,
            "nb_img_h": 6,
            "nb_img_v": 1,
            "skip_x": 3,
            "skip_y": 0,
            "animation_speed": 1,
            "nb_frames": 6,
            "hitboxes": [0,0,0,0]
        },
        {
            "name": "run",
            "start_x": 3,
            "start_y": 1191,
            "width": 159,
            "height": 191,
            "nb_img_h": 8,
            "nb_img_v": 1,
            "skip_x": 3,
            "skip_y": 0,
            "animation_speed": 1,
            "nb_frames": 8,
            "hitboxes": [0,0,0,0]
        },
        {
            "name": "tilt",
            "start_x": 3,
            "start_y": 953,
            "width": 184,
            "height": 216,
            "nb_img_h": 6,
            "nb_img_v": 1,
            "skip_x": 3,
            "skip_y": 0,
            "animation_speed": 1,
            "nb_frames": 6,
            "hitboxes": [0,0,0,0]
        },
        {
            "name": "death",
            "start_x": 3,
            "start_y": 953,
            "width": 184,
            "height": 216,
            "nb_img_h": 6,
            "nb_img_v": 1,
            "skip_x": 3,
            "skip_y": 0,
            "animation_speed": 1,
            "nb_frames": 6,
            "hitboxes": [0,0,0,0]
        },
        {
            "name": "hurt",
            "start_x": 3,
            "start_y": 953,
            "width": 184,
            "height": 216,
            "nb_img_h": 6,
            "nb_img_v": 1,
            "skip_x": 3,
            "skip_y": 0,
            "animation_speed": 1,
            "nb_frames": 6,
            "hitboxes": [0,0,0,0]
        },
        {
            "name": "jump",
            "start_x": 3,
            "start_y": 1626,
            "width": 188,
            "height": 229,
            "nb_img_h": 9,
            "nb_img_v": 1,
            "skip_x": 3,
            "skip_y": 0,
            "animation_speed": 1,
            "nb_frames": 9,
            "hitboxes": [0,0,0,0]
        },
        {
            "name": "fall",
            "start_x": 3,
            "start_y": 953,
            "width": 184,
            "height": 216,
            "nb_img_h": 6,
            "nb_img_v": 1,
            "skip_x": 3,
            "skip_y": 0,
            "animation_speed": 1,
            "nb_frames": 6,
            "hitboxes": [0,0,0,0]
        },
        {
            "name": "dash",
            "start_x": 3,
            "start_y": 953,
            "width": 184,
            "height": 216,
            "nb_img_h": 6,
            "nb_img_v": 1,
            "skip_x": 3,
            "skip_y": 0,
            "animation_speed": 1,
            "nb_frames": 6,
            "hitboxes": [0,0,0,0]
        },
        {
            "name": "wall_jump",
            "start_x": 3,
            "start_y": 2128,
            "width": 126,
            "height": 213,
            "nb_img_h": 4,
            "nb_img_v": 1,
            "skip_x": 4,
            "skip_y": 0,
            "animation_speed": 1,
            "nb_frames": 6,
            "hitboxes": [0,0,0,0]
        }
    ]
}
