{
    "name": "particles",
    "format": "precis",
    "type": "layers_simple",
    "sens_base_h": 0,
    "sens_base_v": 0,
    "img_width": 0,
    "img_height": 0,
    "nb_img_h": 0,
    "nb_img_v": 0,
    "width_spritesheet": 1152,
    "height_spritesheet": 512,
    "vertical_flip": [
    ],
    "horizontal_flip": [
    ],
    "color_key": -1,
    "scale": 1,
    "info": "Toutes les informations sont les paramètres ci dessous, pas besoin de skip",
    "animations": [
        {
            "name": "simple_blur_particle",
            "start_x": 1,
            "start_y": 1,
            "width": 126,
            "height": 126,
            "nb_img_h": 1,
            "nb_img_v": 1,
            "skip_x": 0,
            "skip_y": 0
        },
        {
            "name": "bubble_particle",
            "start_x": 0,
            "start_y": 129,
            "width": 30,
            "height": 30,
            "nb_img_h": 1,
            "nb_img_v": 1,
            "skip_x": 0,
            "skip_y": 0
        },
        {
            "name": "spark_particle",
            "start_x": 0,
            "start_y": 160,
            "width": 64,
            "height": 64,
            "nb_img_h": 1,
            "nb_img_v": 1,
            "skip_x": 0,
            "skip_y": 0
        }
    ]
}

