{
    "name": "plant_four",
    "format": "simple",
    "type": "layers_simple",
    "sens_base_h": "left",
    "sens_base_v": 0,
    "img_width": 512,
    "img_height": 512,
    "nb_img_h": 8,
    "nb_img_v": 8,
    "width_spritesheet": 4112,
    "height_spritesheet": 4112,
    "horizontal_flip": ["stop"],
    "vertical_flip": [],
    "color_key": -1,
    "scale_x": 1,
    "scale_y": 1,
    "animations": [
        ["stop", 60]
    ]
}