{
    "name": "plant_poison",
    "format": "simple",
    "type": "layers_simple",
    "sens_base_h": 0,
    "sens_base_v": 0,
    "img_width": 512,
    "img_height": 512,
    "nb_img_h": 6,
    "nb_img_v": 5,
    "width_spritesheet": 3084,
    "height_spritesheet": 2570,
    "horizontal_flip": [],
    "vertical_flip": [],
    "color_key": -1,
    "scale_x": 1,
    "scale_y": 1,
    "animations": [
        ["stop", 30]
    ]
}