{
    "name": "plant_three",
    "format": "simple",
    "type": "layers_simple",
    "sens_base_h": 0,
    "sens_base_v": 0,
    "img_width": 512,
    "img_height": 512,
    "nb_img_h": 10,
    "nb_img_v": 9,
    "width_spritesheet": 5120,
    "height_spritesheet": 4608,
    "horizontal_flip": ["stop"],
    "vertical_flip": ["stop"],
    "color_key": -1,
    "scale": 0.5,
    "animations": [
        {
            "name": "stop",
            "nb_frames": 90
        }
    ]
}