{
    "name": "level_one",
    "tilesets": [
        "none",
        "tileset"
    ],
    "max_index_perspective": 8,
    "perspective_tileset": 4,
    "perspective_player": 5,
    "bgs": {
        "layer2": {
            "perspective": 1,
            "index": 5,
            "x": 0,
            "y": 0,
            "width": 1280,
            "height": 720
        }
    },
    "map":[
        [1,1,1,0,0,0,0,0,0,0,0,0,0,0,0,0,0,0,0,0,0,0,0,0,0,1,1,1,1,1,1,1,1,1,1,1,1,1,1,1,1,1,1,1,1,1,1,1,0,0,0,0,0],
        [1,1,1,0,0,0,0,0,1,1,0,0,0,1,0,1,1,1,0,0,0,0,0,0,0,1,1,1,1,1,1,1,1,1,1,1,1,1,1,1,1,1,1,1,1,1,1,1,0,0,0,0,0],
        [0,0,0,0,0,0,0,0,1,1,0,1,0,0,0,1,1,1,0,1,0,1,1,1,0,1,1,1,1,1,1,1,1,0,0,0,0,0,0,0,0,0,0,0,1,1,0,0,0,0,0,0,0],
        [0,0,0,1,1,1,1,0,1,1,0,0,0,0,1,0,0,0,1,0,0,0,0,0,0,1,1,1,1,1,1,1,1,0,0,0,0,0,0,0,0,0,0,0,0,0,0,0,0,0,0,0,0],
        [1,1,1,0,0,0,0,1,1,1,0,0,0,1,0,0,0,0,0,0,1,0,0,0,0,0,0,0,0,0,0,0,0,0,0,0,0,0,0,0,0,0,0,0,0,0,0,0,0,0,0,0,0],
        [1,0,1,1,1,1,1,1,1,1,1,1,1,0,0,0,0,0,0,0,0,1,1,1,0,1,1,1,1,1,1,1,1,1,1,1,1,1,1,1,1,1,0,0,0,1,1,1,0,0,1,1,0],
        [1,1,1,1,1,1,1,1,1,1,1,1,1,0,0,0,0,0,0,0,0,0,0,0,0,1,1,1,1,1,1,1,1,1,1,1,1,1,1,1,1,1,1,1,0,0,0,0,1,1,1,1,1],
        [1,1,1,1,1,1,1,1,1,1,1,1,1,0,0,0,0,0,0,0,0,0,0,0,0,1,1,1,1,1,1,1,1,1,1,1,1,1,1,1,1,1,1,1,0,0,0,0,1,1,1,1,1]
    ],
    "layers": [
        {
            "id": 7,
            "coeff_perspective": 2,
            "scale": 1.33,
            "effect": "black",
            "background": {
                "red": 40,
                "green": 40,
                "blue": 40,
                "opacity": 0
            },
            "decorations": [
                {
                    "name": "plants_decoration",
                    "etat": "leaves_two",
                    "x": 0,
                    "y": 200,
                    "flip_horizontal": true,
                    "flip_vertical": false,
                    "rotation": 20,
                    "scale": 0.35
                },
                {
                    "name": "plants_decoration",
                    "etat": "leaves_three",
                    "x": 0,
                    "y": 265,
                    "flip_horizontal": true,
                    "flip_vertical": false,
                    "rotation": 30,
                    "scale": 0.35
                },
                {
                    "name": "plants_decoration",
                    "etat": "plant_two_tronquee",
                    "x": 370,
                    "y": 0,
                    "flip_horizontal": false,
                    "flip_vertical": false,
                    "rotation": 0,
                    "scale": 0.4
                },
                {
                    "name": "plants_decoration",
                    "etat": "plant_three_tronquee",
                    "x": 570,
                    "y": 0,
                    "flip_horizontal": false,
                    "flip_vertical": false,
                    "rotation": 0,
                    "scale": 0.4
                },
                {
                    "name": "plants_decoration",
                    "etat": "plant_five_tronquee",
                    "x": 780,
                    "y": 0,
                    "flip_horizontal": false,
                    "flip_vertical": false,
                    "rotation": 0,
                    "scale": 0.4
                },
                {
                    "name": "floating_platforms",
                    "etat": "big_floating_platform_one",
                    "x": 750,
                    "y": 710,
                    "flip_horizontal": false,
                    "flip_vertical": true,
                    "rotation": 0,
                    "scale": 0.5
                },
                {
                    "name": "plant_wind",
                    "start_anim": 0,
                    "x": 750,
                    "y": 500,
                    "flip_horizontal": false,
                    "flip_vertical": false,
                    "rotation": 0,
                    "scale": 1
                },
                {
                    "name": "blue_flower_one",
                    "start_anim": 0,
                    "x": 1100,
                    "y": 450,
                    "flip_horizontal": false,
                    "flip_vertical": false,
                    "rotation": 70,
                    "scale": 1
                },
                {
                    "name": "plant_two",
                    "start_anim": 0,
                    "x": 1400,
                    "y": 500,
                    "flip_horizontal": false,
                    "flip_vertical": false,
                    "rotation": 0,
                    "scale": 1
                },
                {
                    "name": "objects_decoration",
                    "etat": "big_brambles_three",
                    "x": 2900,
                    "y": 500,
                    "flip_horizontal": false,
                    "flip_vertical": false,
                    "rotation": 0,
                    "scale": 0.5
                },
                {
                    "name": "background_decoration",
                    "etat": "medium_horizontal_tronque",
                    "x": 2700,
                    "y": 900,
                    "flip_horizontal": true,
                    "flip_vertical": false,
                    "rotation": 0,
                    "scale": 0.5
                },
                {
                    "name": "plants_decoration",
                    "etat": "big_plant_one",
                    "x": 3700,
                    "y": 500,
                    "flip_horizontal": false,
                    "flip_vertical": true,
                    "rotation": 0,
                    "scale": 0.35
                },
                {
                    "name": "plants_decoration",
                    "etat": "big_plant_one",
                    "x": 3900,
                    "y": 600,
                    "flip_horizontal": false,
                    "flip_vertical": true,
                    "rotation": 0,
                    "scale": 0.35
                },
                {
                    "name": "plants_decoration",
                    "etat": "big_plant_one",
                    "x": 4200,
                    "y": 600,
                    "flip_horizontal": false,
                    "flip_vertical": true,
                    "rotation": 0,
                    "scale": 0.35
                },
                {
                    "name": "plants_decoration",
                    "etat": "plant_one_tronquee",
                    "x": 5100,
                    "y": 0,
                    "flip_horizontal": false,
                    "flip_vertical": false,
                    "rotation": 0,
                    "scale": 0.4
                },
                {
                    "name": "plants_decoration",
                    "etat": "plant_two_tronquee",
                    "x": 5300,
                    "y": 0,
                    "flip_horizontal": false,
                    "flip_vertical": false,
                    "rotation": 0,
                    "scale": 0.4
                },
                {
                    "name": "plants_decoration",
                    "etat": "plant_five_tronquee",
                    "x": 5500,
                    "y": 0,
                    "flip_horizontal": false,
                    "flip_vertical": false,
                    "rotation": 0,
                    "scale": 0.4
                },
                {
                    "name": "plants_decoration",
                    "etat": "plant_three_tronquee",
                    "x": 5700,
                    "y": 0,
                    "flip_horizontal": false,
                    "flip_vertical": false,
                    "rotation": 0,
                    "scale": 0.4
                }
            ]
        },
        {
            "id": 6,
            "coeff_perspective": 1.1,
            "scale": 0.75,
            "background": {
                "red": 54,
                "green": 50,
                "blue": 50,
                "opacity": 0
            },
            "decorations": [
                {
                    "name": "blue_flower_two",
                    "start_anim": 0,
                    "x": 600,
                    "y": 500,
                    "flip_horizontal": false,
                    "flip_vertical": false,
                    "rotation": 60,
                    "scale": 0.8
                },
                {
                    "name": "blue_flower_one",
                    "start_anim": 0,
                    "x": 500,
                    "y": 450,
                    "flip_horizontal": false,
                    "flip_vertical": false,
                    "rotation": 10,
                    "scale": 1.2
                },
                {
                    "name": "background_decoration",
                    "etat": "medium_horizontal",
                    "x": 500,
                    "y": 640,
                    "flip_horizontal": true,
                    "flip_vertical": false,
                    "rotation": 0,
                    "scale": 0.6
                },
                {
                    "name": "background_decoration",
                    "etat": "medium_horizontal",
                    "x": 130,
                    "y": 640,
                    "flip_horizontal": false,
                    "flip_vertical": false,
                    "rotation": 0,
                    "scale": 0.6
                },
                {
                    "name": "plant_wind",
                    "start_anim": 0,
                    "x": 165,
                    "y": 680,
                    "flip_horizontal": false,
                    "flip_vertical": false,
                    "rotation": 0,
                    "scale": 1
                },
                {
                    "name": "blue_flower_one",
                    "start_anim": 0,
                    "x": 0,
                    "y": 390,
                    "flip_horizontal": false,
                    "flip_vertical": false,
                    "rotation": 5,
                    "scale": 0.8
                },
                {
                    "name": "blue_flower_two",
                    "start_anim": 0,
                    "x": 1300,
                    "y": 450,
                    "flip_horizontal": true,
                    "flip_vertical": false,
                    "rotation": -10,
                    "scale": 1.2
                },
            ]
        },
        {
            "id": 3,
            "coeff_perspective": 1,
            "scale": 1,
            "background": {
                "red": 27,
                "green": 0,
                "blue": 40,
                "opacity": 0
            },
            "decorations": [
                {
                    "name": "plant_one",
                    "start_anim": 0,
                    "x": 25,
                    "y": 430,
                    "flip_horizontal": false,
                    "flip_vertical": false,
                    "rotation": 0,
                    "scale": 0.5
                },
                {
                    "name": "plant_three",
                    "start_anim": 0,
                    "x": 360,
                    "y": 530,
                    "flip_horizontal": false,
                    "flip_vertical": false,
                    "rotation": 0,
                    "scale": 0.6
                },
                {
                    "name": "plant_wind",
                    "start_anim": 0,
                    "x": 930,
                    "y": 430,
                    "flip_horizontal": false,
                    "flip_vertical": false,
                    "rotation": 0,
                    "scale": 0.5
                },
                {
                    "name": "plant_one",
                    "start_anim": 0,
                    "x": 1030,
                    "y": 50,
                    "flip_horizontal": false,
                    "flip_vertical": false,
                    "rotation": 0,
                    "scale": 0.5
                },
                {
                    "name": "plant_one",
                    "start_anim": 0,
                    "x": 1070,
                    "y": 50,
                    "flip_horizontal": true,
                    "flip_vertical": false,
                    "rotation": 0,
                    "scale": 0.5
                },
                {
                    "name": "plant_one",
                    "start_anim": 0,
                    "x": 1100,
                    "y": 50,
                    "flip_horizontal": false,
                    "flip_vertical": false,
                    "rotation": 0,
                    "scale": 0.5
                },
                {
                    "name": "plant_one",
                    "start_anim": 0,
                    "x": 1130,
                    "y": 50,
                    "flip_horizontal": true,
                    "flip_vertical": false,
                    "rotation": 0,
                    "scale": 0.5
                },
                {
                    "name": "objects_decoration",
                    "etat": "big_brambles_two",
                    "x": 1870,
                    "y": 300,
                    "flip_horizontal": false,
                    "flip_vertical": true,
                    "rotation": 0,
                    "scale": 0.3
                },
                {
                    "name": "objects_decoration",
                    "etat": "small_brambles_two",
                    "x": 1505,
                    "y": 212,
                    "flip_horizontal": false,
                    "flip_vertical": true,
                    "rotation": 10,
                    "scale": 0.4
                }
            ]
        },
        {
            "id": 2,
            "coeff_perspective": 0.9,
            "scale": 0.5,
            "background": {
                "red": 4,
                "green": 30,
                "blue": 35,
                "opacity": 100
            },
            "decorations": [
                {
                    "name": "objects_decoration",
                    "etat": "branch_four",
                    "x": 20,
                    "y": 190,
                    "flip_horizontal": false,
                    "flip_vertical": false,
                    "rotation": 0,
                    "scale": 0.5
                },
                {
                    "name": "objects_decoration",
                    "etat": "branch_two",
                    "x": 150,
                    "y": 180,
                    "flip_horizontal": false,
                    "flip_vertical": false,
                    "rotation": 15,
                    "scale": 0.5
                },
                {
                    "name": "objects_decoration",
                    "etat": "branch_four",
                    "x": 90,
                    "y": 180,
                    "flip_horizontal": true,
                    "flip_vertical": true,
                    "rotation": 0,
                    "scale": 0.5
                },
                {
                    "name": "objects_decoration",
                    "etat": "branch_one",
                    "x": 530,
                    "y": 350,
                    "flip_horizontal": false,
                    "flip_vertical": false,
                    "rotation": 0,
                    "scale": 0.6
                },
                {
                    "name": "objects_decoration",
                    "etat": "branch_three",
                    "x": 400,
                    "y": -30,
                    "flip_horizontal": false,
                    "flip_vertical": false,
                    "rotation": -30,
                    "scale": 0.7
                },
                {
                    "name": "blue_flower_one",
                    "start_anim": 0,
                    "x": 50,
                    "y": 340,
                    "flip_horizontal": true,
                    "flip_vertical": false,
                    "rotation": -20,
                    "scale": 1
                },
                {
                    "name": "plant_two",
                    "start_anim": 0,
                    "x":230,
                    "y": 380,
                    "flip_horizontal": false,
                    "flip_vertical": false,
                    "rotation": 0,
                    "scale": 1
                },
                {
                    "name": "floating_platforms",
                    "etat": "medium_vertical_floating_platform",
                    "x": 0,
                    "y": 380,
                    "flip_horizontal": false,
                    "flip_vertical": false,
                    "rotation": 0,
                    "scale": 0.5
                },
                {
                    "name": "floating_platforms",
                    "etat": "big_floating_platform_two",
                    "x": 90,
                    "y": 470,
                    "flip_horizontal": false,
                    "flip_vertical": false,
                    "rotation": 0,
                    "scale": 0.5
                },
                {
                    "name": "blue_flower_two",
                    "start_anim": 0,
                    "x": 180,
                    "y": 370,
                    "flip_horizontal": false,
                    "flip_vertical": false,
                    "rotation": 60,
                    "scale": 1
                },
                {
                    "name": "objects_decoration",
                    "etat": "rock_three",
                    "x": 1300,
                    "y": 430,
                    "flip_horizontal": false,
                    "flip_vertical": false,
                    "rotation": 0,
                    "scale": 0.5
                },
                {
                    "name": "floating_platforms",
                    "etat": "medium_horizontal_floating_platform_one",
                    "x": 1350,
                    "y": 620,
                    "flip_horizontal": false,
                    "flip_vertical": false,
                    "rotation": 0,
                    "scale": 0.5
                },
                {
                    "name": "blue_flower_two",
                    "start_anim": 0,
                    "x": 1190,
                    "y": 500,
                    "flip_horizontal": false,
                    "flip_vertical": false,
                    "rotation": 10,
                    "scale": 1
                },
                {
                    "name": "blue_flower_one",
                    "start_anim": 0,
                    "x": 1220,
                    "y": 480,
                    "flip_horizontal": false,
                    "flip_vertical": false,
                    "rotation": 40,
                    "scale": 1
                }
            ]
        },
        {
            "id": 1,
            "coeff_perspective": 0.8,
            "scale": 0.4,
            "background": {
                "red": 27,
                "green": 0,
                "blue": 40,
                "opacity": 100
            },
            "decorations": [
                {
                    "name": "plants_decoration",
                    "etat": "big_plant_one",
                    "x": 630,
                    "y": 420,
                    "flip_horizontal": true,
                    "flip_vertical": true,
                    "rotation": 0,
                    "scale": 0.6
                },
                {
                    "name": "plants_decoration",
                    "etat": "big_plant_one",
                    "x": 690,
                    "y": 325,
                    "flip_horizontal": false,
                    "flip_vertical": true,
                    "rotation": 0,
                    "scale": 0.6
                },
                {
                    "name": "plants_decoration",
                    "etat": "big_plant_one",
                    "x": 740,
                    "y": 350,
                    "flip_horizontal": false,
                    "flip_vertical": true,
                    "rotation": 0,
                    "scale": 0.6
                },
                {
                    "name": "plants_decoration",
                    "etat": "big_plant_one",
                    "x": 860,
                    "y": 390,
                    "flip_horizontal": false,
                    "flip_vertical": true,
                    "rotation": 0,
                    "scale": 0.6
                },
                {
                    "name": "plants_decoration",
                    "etat": "big_plant_one",
                    "x": 800,
                    "y": 320,
                    "flip_horizontal": false,
                    "flip_vertical": true,
                    "rotation": 0,
                    "scale": 0.6
                },
                {
                    "name": "plants_decoration",
                    "etat": "big_plant_one",
                    "x": 1030,
                    "y": 390,
                    "flip_horizontal": false,
                    "flip_vertical": true,
                    "rotation": 0,
                    "scale": 0.6
                },
                {
                    "name": "plants_decoration",
                    "etat": "big_plant_one",
                    "x": 970,
                    "y": 340,
                    "flip_horizontal": true,
                    "flip_vertical": true,
                    "rotation": 0,
                    "scale": 0.6
                },
                {
                    "name": "plants_decoration",
                    "etat": "big_plant_one",
                    "x": 1150,
                    "y": 400,
                    "flip_horizontal": true,
                    "flip_vertical": true,
                    "rotation": 0,
                    "scale": 0.6
                },
                {
                    "name": "plants_decoration",
                    "etat": "big_plant_one",
                    "x": 1100,
                    "y": 330,
                    "flip_horizontal": false,
                    "flip_vertical": true,
                    "rotation": 0,
                    "scale": 0.6
                },
                {
                    "name": "background_decoration",
                    "etat": "medium_vertical",
                    "x": 1500,
                    "y": 0,
                    "flip_horizontal": false,
                    "flip_vertical": false,
                    "rotation": 0,
                    "scale": 1
                },
                {
                    "name": "blue_flower_one",
                    "start_anim": 0,
                    "x": 1580,
                    "y": 490,
                    "flip_horizontal": true,
                    "flip_vertical": false,
                    "rotation": -20,
                    "scale": 1
                },
                {
                    "name": "blue_flower_two",
                    "start_anim": 0,
                    "x": 1540,
                    "y": 440,
                    "flip_horizontal": true,
                    "flip_vertical": false,
                    "rotation": -30,
                    "scale": 1
                },
                {
                    "name": "background_decoration",
                    "etat": "small",
                    "x": 1300,
                    "y": 520,
                    "flip_horizontal": false,
                    "flip_vertical": false,
                    "rotation": 0,
                    "scale": 1
                },
                {
                    "name": "plants_decoration",
                    "etat": "big_plant_one",
                    "x": 1670,
                    "y": 340,
                    "flip_horizontal": false,
                    "flip_vertical": true,
                    "rotation": 0,
                    "scale": 0.5
                },
                {
                    "name": "plants_decoration",
                    "etat": "big_plant_one",
                    "x": 1750,
                    "y": 320,
                    "flip_horizontal": true,
                    "flip_vertical": true,
                    "rotation": 0,
                    "scale": 0.5
                },
                {
                    "name": "plant_five",
                    "start_anim": 0,
                    "x": 1620,
                    "y": 560,
                    "flip_horizontal": false,
                    "flip_vertical": false,
                    "rotation": -20,
                    "scale": 0.7
                },
                {
                    "name": "background_decoration",
                    "etat": "medium_horizontal",
                    "x": 1580,
                    "y": 550,
                    "flip_horizontal": false,
                    "flip_vertical": false,
                    "rotation": 0,
                    "scale": 1
                }
            ]
        },
        {
            "id": 0,
            "coeff_perspective": 0.5,
            "scale": 0.3,
            "background": {
                "red": 27,
                "green": 0,
                "blue": 40,
                "opacity": 125
            },
            "decorations": [
                {
                    "name": "background_decoration",
                    "etat": "big_long",
                    "x": 0,
                    "y": -100,
                    "flip_horizontal": false,
                    "flip_vertical": false,
                    "rotation": -5,
                    "scale": 1
                },
                {
                    "name": "background_decoration",
                    "etat": "medium_vertical",
                    "x": 150,
                    "y": 230,
                    "flip_horizontal": false,
                    "flip_vertical": false,
                    "rotation": 0,
                    "scale": 1
                },
                {
                    "name": "background_decoration",
                    "etat": "big_long_crop",
                    "x": 600,
                    "y": 0,
                    "flip_horizontal": false,
                    "flip_vertical": false,
                    "rotation": 0,
                    "scale": 1
                },
                {
                    "name": "floating_decoration",
                    "etat": "medium_floating_deco_crop_down_two",
                    "x": 350,
                    "y": 0,
                    "flip_horizontal": false,
                    "flip_vertical": true,
                    "rotation": 0,
                    "scale": 1
                },
                {
                    "name": "blue_flower_one",
                    "start_anim": 0,
                    "x": 510,
                    "y": 100,
                    "flip_horizontal": true,
                    "flip_vertical": true,
                    "rotation": 40,
                    "scale": 1
                },
                {
                    "name": "floating_decoration",
                    "etat": "big_floating_deco_not_crop",
                    "x": 750,
                    "y": 0,
                    "flip_horizontal": false,
                    "flip_vertical": false,
                    "rotation": 0,
                    "scale": 1
                },
                {
                    "name": "background_decoration",
                    "etat": "medium_long_tronque",
                    "x": 1100,
                    "y": 0,
                    "flip_horizontal": false,
                    "flip_vertical": false,
                    "rotation": 0,
                    "scale": 1
                },
                {
                    "name": "plant_three",
                    "start_anim": 0,
                    "x": 1250,
                    "y": 240,
                    "flip_horizontal": false,
                    "flip_vertical": false,
                    "rotation": 0,
                    "scale": 1
                },
                {
                    "name": "floating_platforms",
                    "etat": "big_floating_platform_two",
                    "x": 1000,
                    "y": 300,
                    "flip_horizontal": false,
                    "flip_vertical": false,
                    "rotation": 0,
                    "scale": 0.7
                },
                {
                    "name": "blue_flower_one",
                    "start_anim": 0,
                    "x": 1000,
                    "y": 220,
                    "flip_horizontal": false,
                    "flip_vertical": false,
                    "rotation": 0,
                    "scale": 0.8
                },
                {
                    "name": "objects_decoration",
                    "etat": "rock_one",
                    "x": 1020,
                    "y": 240,
                    "flip_horizontal": false,
                    "flip_vertical": false,
                    "rotation": 0,
                    "scale": 0.5
                },
                {
                    "name": "plants_decoration",
                    "etat": "big_plant_one",
                    "x": 1350,
                    "y": 340,
                    "flip_horizontal": true,
                    "flip_vertical": true,
                    "rotation": 0,
                    "scale": 0.5
                },
                {
                    "name": "plants_decoration",
                    "etat": "big_plant_one",
                    "x": 1370,
                    "y": 350,
                    "flip_horizontal": false,
                    "flip_vertical": true,
                    "rotation": 0,
                    "scale": 0.5
                },
                {
                    "name": "plants_decoration",
                    "etat": "big_plant_one",
                    "x": 1400,
                    "y": 320,
                    "flip_horizontal": true,
                    "flip_vertical": true,
                    "rotation": 0,
                    "scale": 0.5
                },
                {
                    "name": "background_decoration",
                    "etat": "medium_vertical",
                    "x": 1300,
                    "y": 450,
                    "flip_horizontal": true,
                    "flip_vertical": false,
                    "rotation": 0,
                    "scale": 1
                },
                {
                    "name": "background_decoration",
                    "etat": "medium_horizontal",
                    "x": 1400,
                    "y": 0,
                    "flip_horizontal": true,
                    "flip_vertical": true,
                    "rotation": 0,
                    "scale": 1
                },
                {
                    "name": "blue_flower_one",
                    "start_anim": 0,
                    "x": 1450,
                    "y": 180,
                    "flip_horizontal": false,
                    "flip_vertical": true,
                    "rotation": 0,
                    "scale": 0.8
                },
                {
                    "name": "blue_flower_two",
                    "start_anim": 0,
                    "x": 1480,
                    "y": 190,
                    "flip_horizontal": false,
                    "flip_vertical": true,
                    "rotation": -20,
                    "scale": 0.8
                },
                {
                    "name": "blue_flower_one",
                    "start_anim": 0,
                    "x": 1600,
                    "y": 240,
                    "flip_horizontal": true,
                    "flip_vertical": true,
                    "rotation": 20,
                    "scale": 0.8
                },
                {
                    "name": "blue_flower_two",
                    "start_anim": 0,
                    "x": 1800,
                    "y": 150,
                    "flip_horizontal": true,
                    "flip_vertical": true,
                    "rotation": 0,
                    "scale": 0.8
                }
            ]
        }
    ],
    "obstacles": [
        {
                    "state": "stop",
            "name": "caillou",
            "x": 338,
            "y": 234,
            "params": [
                {
                    "attribut_yolo": 3
                }
            ]
        }
    ],
    "characters": [
        {
            "name": "mouche",
            "x": 218,
            "y": 78
        }
    ],
    "before_level": "level_one",
    "next_level": "level_two"
}